(36;329)
(194;1498)
(1116;1393)(1048;1451)(1060;1555)(1168;1527)(1173;1489)
(684;862)(636;809)(585;867)(629;920)(672;902)(684;865)
(1516;480)(1472;479)(1428;506)(1461;570)(1501;575)(1564;526)
(516;1269)(476;1281)(459;1373)(552;1394)(594;1335)
(857;1264)(801;1255)(780;1274)(774;1308)(798;1342)(872;1299)
(759;316)(686;364)(715;420)(785;367)
(1050;963)(972;988)(989;1044)(1036;1052)(1074;1005)
(330;1452)(284;1428)(228;1440)(200;1479)(271;1561)(347;1494)
(1173;159)(1113;187)(1139;252)(1181;258)(1233;209)
(1376;565)(1348;560)(1315;571)(1293;601)(1332;656)(1385;649)(1409;610)
(1567;1079)(1534;1039)(1491;1033)(1460;1042)(1432;1094)(1481;1130)(1568;1082)
(937;861)(882;889)(879;921)(911;956)(978;910)
(1499;1185)(1366;1172)(1336;1234)(1443;1288)(1515;1223)
(1536;203)(1478;155)(1446;196)(1452;283)(1502;310)(1533;272)(1539;233)
(1552;669)(1429;663)(1462;754)(1491;755)(1585;705)
(1162;679)(1104;671)(1063;728)(1109;777)(1187;723)
(696;1392)(649;1351)(612;1366)(634;1449)(697;1401)
(1050;1384)(1020;1345)(930;1381)(926;1454)(949;1494)(1058;1423)
(1389;198)(1305;158)(1291;226)(1378;253)(1390;208)
(737;1146)(698;1143)(662;1234)(761;1240)(775;1201)
(1201;1233)(1112;1244)(1114;1390)(1198;1400)(1248;1316)
(1058;562)(938;560)(868;659)(998;687)(1078;675)(1144;621)
(1416;251)(1287;367)(1286;423)(1308;533)(1444;399)
(579;1471)(537;1421)(490;1444)(475;1489)(482;1537)(576;1535)(583;1498)
(1070;1168)(915;1111)(856;1168)(880;1350)(1067;1324)(1088;1243)
(919;416)(912;376)(823;403)(839;529)(920;439)
(301;1005)(235;1030)(260;1095)(323;1082)(334;1051)
(1230;413)(1208;379)(1123;415)(1167;490)(1232;429)
(596;1037)(559;1110)(582;1173)(658;1110)
(1357;802)(1270;795)(1220;813)(1242;885)(1297;894)(1399;843)
(715;895)(666;1047)(785;1072)(834;988)
(1452;815)(1265;973)(1345;1042)(1534;1031)(1600;936)
(861;1445)(718;1338)(694;1486)(853;1519)(861;1452)
(456;671)(240;712)(340;891)(497;764)
(1456;1338)(1381;1316)(1293;1322)(1172;1448)(1221;1534)(1351;1575)(1478;1539)(1534;1445)
(658;260)(577;216)(521;225)(530;309)(613;310)(659;266)
(198;294)(165;358)(219;393)(262;343)
(638;681)(586;536)(489;567)(464;642)(540;871)(627;781)(638;697)
(393;1188)(236;1163)(135;1261)(243;1410)(316;1414)(445;1286)
(1291;1053)(1254;1008)(1152;992)(1076;1089)(1118;1176)(1270;1165)(1298;1093)
